Kiva Crowdfunding and You: A Tutorial to Data Science
…
Data Curation

As you can see, theres a lot of extra data here we wont be using. Lets tidy up the data frame by removing a few attributes. We want to remove attributes with data thats too unique to each entity (urls or long descriptive attributes are good examples of these), or attributes with overly large amounts of missing data. Well sort the ids in numerical order. Additionally, a tidy version of borrower_genders would be useful. Instead of borrower_genders being a string list of male and female, lets create two new attributes, borrower_male and borrower_female, showing how much of each is present.

tidy_tab <- loan_tab %>%
  select(-tags) %>%
  select(-use) %>%
  select(-funded_amount) %>%
  arrange(id) %>%
  mutate(borrower_female = str_count(borrower_genders, "fe")) %>%
  mutate(borrower_male = str_count(borrower_genders,"male") - borrower_female) %>%
  select(-borrower_genders)
tidy_tab

## # A tibble: 671,205 x 18
##        id loan_amount activity sector country_code country region currency
##     <int>       <dbl> <chr>    <chr>  <chr>        <chr>   <chr>  <chr>   
##  1 653047        2225 Persona~ Retail PK           Pakist~ Lahore PKR     
##  2 653048         625 Food Pr~ Food   PK           Pakist~ Lahore PKR     
##  3 653049         250 Shoe Sa~ Retail PK           Pakist~ Lahore PKR     
##  4 653050         575 Clothin~ Cloth~ PK           Pakist~ Lahore PKR     
##  5 653051         300 Fruits ~ Food   PK           Pakist~ Lahore PKR     
##  6 653052         875 Tailori~ Servi~ PK           Pakist~ Lahore PKR     
##  7 653053         575 Rickshaw Trans~ PK           Pakist~ Lahore PKR     
##  8 653054         300 Rickshaw Trans~ PK           Pakist~ Lahore PKR     
##  9 653055         350 Restaur~ Food   PK           Pakist~ Lahore PKR     
## 10 653056         475 Rickshaw Trans~ PK           Pakist~ Lahore PKR     
## # ... with 671,195 more rows, and 10 more variables: partner_id <dbl>,
## #   posted_time <dttm>, disbursed_time <dttm>, funded_time <dttm>,
## #   term_in_months <dbl>, lender_count <int>, repayment_interval <chr>,
## #   date <date>, borrower_female <int>, borrower_male <int>
…
